{
  "cviceni": {
    "version": {
      "global": "<%= version %>",
      "content": 1
    },
    "katalog": [
      "test"
    ],
    "language": "cs",
    "slug": "",
    "nazev": "",
    "autor": [
      ""
    ],
    "klicovaSlova": {
      "rvp": [],
      "koncept": [],
      "b4": [],
      "historylab": []
    },
    "casovaOsa": {
      "roky": [],
      "epochy": [
        {
          "nazev": "ceska",
          "obdobi": [
            ""
          ]
        },
        {
          "nazev": "svetova",
          "obdobi": [
            ""
          ]
        }
      ]
    },
    "anotace": {
      "ucitel": "",
      "verejna": ""
    },
    "trvani": 30,
    "obtiznost": "",
    "funkce": [
      "lupa",
      "cteni",
      "text"
    ],
    "pdf": {
      "doporucenyPostup": ""
    },
    "uvodniObrazek": ""
  },
  "slajd": [
    {
      "zadani": {
        "hlavni": "",
        "rozsirujici": ""
      },
      "napoveda": {
        "aktivity": [],
        "text": ""
      },
      "popisky": []
    }
  ]
}