{
  "cviceni": {
    "version": {
      "global": "<%= version %>",
      "content": 1
    },
    "katalog": [
      "test"
    ],
    "language": "cs",
    "slug": "jak-informovali-o-havarii",
    "nazev": "Jak informovali o havárii?",
    "autor": [
      "Petra Švardová"
    ],
    "klicovaSlova": {
      "rvp": [
        "Československo 80. léta",
        "technika"
      ],
      "koncept": [
        "člověk a životní prostředí"
      ],
      "b4": [
        "dobové perspektivy"
      ],
      "historylab": [
        "porovnáváme zdroje"
      ]
    },
    "casovaOsa": {
      "roky": [
        1986
      ],
      "epochy": [
        {
          "nazev": "ceska",
          "obdobi": [
            "normalizace"
          ]
        },
        {
          "nazev": "svetova",
          "obdobi": [
            "studená válka a rozpad koloniálních říší"
          ]
        }
      ]
    },
    "anotace": {
      "ucitel": "Cvičení se zaměřuje na jadernou havárii v Černobylu v roce 1986. Pomocí dobových rozhlasových zpráv žáci porozumí fungování sdělovacích prostředků v komunistickém Československu. Prostřednictvím srovnání státního zpravodajství s vysíláním zahraničního  Rádia Svobodné Evropy se zamýšlejí nad tím, jak havárii vnímali doboví posluchači.",
      "verejna": "Co občané Československa věděli o havárii jaderné elektrárny Černobyl? Porovnejte zprávy domácího a zahraničního rozhlasu a pokuste se vžít do situace dobových posluchačů."
    },
    "trvani": 25,
    "obtiznost": "",
    "funkce": [
      "lupa",
      "cteni",
      "text",
      "audio",
      "text-editor"
    ],
    "pdf": {
      "doporucenyPostup": "jak-informovali-o-havarii.pdf"
    },
    "uvodniObrazek": "jak-informovali-o-havarii/pic-00-810w.jpg",
    "id": 115
  },
  "slajd": [
    {
      "zadani": {
        "hlavni": "Poslechněte si nahrávku a prozkoumejte prameny v galerii.",
        "rozsirujici": ""
      },
      "napoveda": {
        "aktivity": [
          "lupa",
          "audio"
        ],
        "text": "Při kliknutí levým tlačítkem do obrazu lupa přiblíží část obrazu ve výřezu."
      },
      "media": {
        "nastaveni": {
          "vzhled": "normalni",
          "layout": "velka-galerie"
        },
        "galerie": [
          {
            "soubor": "jak-informovali-o-havarii/pic-00-810w.jpg",
            "popisek": "Ukrajinská atomová elektrárna Černobyl po výbuchu, 26. dubna 1986. Foto STR. Zdroj: ČTK"
          },
          {
            "soubor": "jak-informovali-o-havarii/pic-01-810w.jpg",
            "popisek": "Oslavy Prvního máje v ukrajinském Kyjevě, 1. května 1986. Zdroj: AP"
          },
          {
            "soubor": "jak-informovali-o-havarii/pic-02-810w.jpg",
            "popisek": "Informace o situaci v Černobylu ze sedmé stránky deníku Rudé Právo. K havárii v Černobylu, Rudé právo, 30. dubna 1986. Zdroj: NK ČR"
          }
        ],
        "soubory": [
          {
            "soubor": "jak-informovali-o-havarii/audio-00.mp3",
            "nazev": "Zpravodajství Československého rozhlasu, 30. dubna 1986",
            "popisek": "Zdroj: Archiv ČRo"
          },
          {
            "soubor": "jak-informovali-o-havarii/audio-01.mp3",
            "nazev": "Zpravodajství Rádia Svobodná Evropa, 9. srpna 1986",
            "popisek": "Zdroj: Národní muzeum"
          }
        ]
      }
    },
    {
      "zadani": {
        "hlavni": "Označte tři klíčové informace z první zprávy.",
        "rozsirujici": ""
      },
      "napoveda": {
        "aktivity": [
          "text-editor"
        ],
        "text": "Výběr provedete kliknutím na předznačené výrazy."
      },
      "textovyEditor": {
        "nastaveni": {
          "vzhled": "normalni",
          "layout": "velka-galerie"
        },
        "galerie": [
          {
            "soubor": "jak-informovali-o-havarii/audio-00.mp3",
            "nazev": "Zpravodajství Československého rozhlasu, 30. dubna 1986",
            "label": "Nahrávka 1: ČsRo",
            "popisek": "Zdroj: Archiv ČRo"
          }
        ],
        "texty": [
          {
            "id": 1,
            "text": "text-00",
            "funkce": "predznaceny",
            "predznaceni": [
              {
                "vyraz": "pokračují práce k likvidaci následků nedávné havárie",
                "data": {}
              },
              {
                "vyraz": "řetězová reakce štěpení jaderného paliva neprobíhá",
                "data": {}
              },
              {
                "vyraz": "agentury na západě rozšířily zvěsti o tom, že při havárii zahynuly tisíce lidí",
                "data": {}
              },
              {
                "vyraz": "ve skutečnosti zahynuli dva lidé",
                "data": {}
              },
              {
                "vyraz": "se radiační situace na černobylské elektrárně a přilehlém okolí zlepšuje",
                "data": {}
              },
              {
                "vyraz": "Kvalita pitné vody i vody v řekách a vodojemech odpovídá normám",
                "data": {}
              },
              {
                "vyraz": "soustavná měření radioaktivity",
                "data": {}
              },
              {
                "vyraz": "není třeba přijímat zvláštní opatření na území Československa",
                "data": {}
              }
            ]
          }
        ]
      }
    },
    {
      "zadani": {
        "hlavni": "Označte tři klíčové informace z druhé zprávy.",
        "rozsirujici": ""
      },
      "napoveda": {
        "aktivity": [
          "text-editor"
        ],
        "text": "Výběr provedete kliknutím na předznačené výrazy."
      },
      "textovyEditor": {
        "nastaveni": {
          "vzhled": "normalni",
          "layout": "velka-galerie"
        },
        "galerie": [
          {
            "soubor": "jak-informovali-o-havarii/audio-01.mp3",
            "nazev": "Zpravodajství Rádia Svobodná Evropa, 9. srpna 1986",
            "label": "Nahrávka 2: RFE",
            "popisek": "Zdroj: Národní muzeum"
          }
        ],
        "texty": [
          {
            "id": 2,
            "text": "text-01",
            "funkce": "predznaceny",
            "predznaceni": [
              {
                "vyraz": "ve Švédsku mají být utraceny stovky sobů",
                "data": {}
              },
              {
                "vyraz": "Co smíme a co nesmíme jíst?",
                "data": {}
              },
              {
                "vyraz": "Poměry se stabilizovaly a staly se téměř  normálními",
                "data": {}
              },
              {
                "vyraz": "Prostý občan, zejména v zemích východní Evropy, je odsouzen k mlčení",
                "data": {}
              },
              {
                "vyraz": "Komunistická strana ztratila natolik důvěru u občanů",
                "data": {}
              },
              {
                "vyraz": "Sdělovací prostředky už dávno přestaly být zdrojem informací",
                "data": {}
              },
              {
                "vyraz": "atomové reaktory sovětského typu jsou nejbezpečnější na světě",
                "data": {}
              }
            ]
          }
        ]
      }
    },
    {
      "zadani": {
        "hlavni": "Odpovězte na otázky.",
        "rozsirujici": ""
      },
      "napoveda": {
        "aktivity": [
          "text"
        ],
        "text": "Do boxu pro text zapisujete odpověď na otázku, nebo jiný komentář (dle zadání)."
      },
      "uzivatelskyText": {
        "novaTabulka": {
          "tabulky": [
            {
              "id": "nova-tabulka-1",
              "dataFrom": [
                "textovy-editor-1",
                "textovy-editor-2"
              ],
              "columns": [
                {
                  "id": "vyznacena-pasaz",
                  "name": "",
                  "bg-color": "",
                  "values": []
                }
              ],
              "rows": [
                {
                  "id": "radio",
                  "name": "Nahrávka 1: ČsRo",
                  "type": {
                    "name": "dup-text",
                    "type": "tag",
                    "textId": "textovy-editor-1"
                  },
                  "bg-color": "",
                  "values": []
                },
                {
                  "id": "muzeum",
                  "name": "Nahrávka 2: RFE",
                  "type": {
                    "name": "dup-text",
                    "type": "tag",
                    "textId": "textovy-editor-2"
                  },
                  "bg-color": "",
                  "values": []
                }
              ]
            }
          ]
        },
        "otazky": [
          {
            "id": "otazka-1",
            "zadani": "Jaké rozpory jste v informacích o havárii zjistili?",
            "instrukce": "Myslím si, že…",
            "minDelka": 0,
            "maxDelka": 400
          },
          {
            "id": "otazka-2",
            "zadani": "Jak mohli rozhlasové zprávy vnímat doboví posluchači?",
            "instrukce": "Šicí stroj používá…",
            "minDelka": 0,
            "maxDelka": 400
          }
        ]
      }
    }
  ]
}